k_eborthil = {
	1000.1.1 = {
		change_development_level = 7
	}
	980.1.1 = {
		holder = 17 #Eborian Goldwater
	}
}

c_eborthil = {
	1000.1.1 = {
		change_development_level = 13
	}
}

c_toref_citadel = {
	1000.1.1 = {
		change_development_level = 10
	}
}