#k_ovdal_tungr
##d_ovdal_tungr
###c_ovdal_tungr
526 = {		#Ovdal Tungr

    # Misc
    culture = copper_dwarvish
    religion = ancestor_worship
	holding = castle_holding

    # History

}
2855 = {

    # Misc
    holding = city_holding

    # History

}
2856 = {

    # Misc
    holding = church_holding

    # History

}
2857 = {

    # Misc
    holding = none

    # History

}
2858 = {

    # Misc
    holding = none

    # History

}
525 = {		#Gordihr

    # Misc
	holding = castle_holding

    # History

}
